<?xml version="1.0" encoding="utf-8"?>
<!-- Generator: Adobe Illustrator 20.1.0, SVG Export Plug-In . SVG Version: 6.00 Build 0)  -->
<svg version="1.1" id="Lager_1" xmlns="http://www.w3.org/2000/svg" xmlns:xlink="http://www.w3.org/1999/xlink" x="0px" y="0px"
	 viewBox="0 0 859.482 145.521" enable-background="new 0 0 859.482 145.521" xml:space="preserve">
<path fill-rule="evenodd" clip-rule="evenodd" fill="#1C3687" d="M228.581,113.812l32.844-85.615l19.677-0.068l-6.362,43.814
	l16.718-43.838l18.322-0.033l-32.935,85.683l-19.494,0.022l5.429-41.834l-16,41.778L228.581,113.812L228.581,113.812z
	 M383.297,113.561l32.844-85.649h19.699l-6.418,43.87l16.944-44.04l18.13,0.227l-32.912,85.559l-19.517-0.036l5.587-41.71
	l-16.103,41.87L383.297,113.561L383.297,113.561z M359.558,28.003l21.065,0.069L354.55,96.172c-0.546,1.479-0.808,2.572-0.512,3.13
	c0.228,0.671,0.842,1.092,2.004,1.022c0.989-0.056,1.797-0.351,2.549-0.773c0.739-0.419,1.16-1.16,1.547-2.06l0.444-1.318
	l26.197-68.169l21.065-0.033l-26.392,68.681c-2.867,7.612-6.19,12.621-9.604,14.52c-3.518,2.164-10.494,3.062-21.168,3.028
	c-10.903,0.102-17.094-0.864-19.029-2.994c-1.81-2.002-1.297-6.908,1.639-14.59L359.558,28.003L359.558,28.003z M497.522,27.878
	c10.743,0.034,17.162,0.899,18.972,3.131c2.071,1.934,1.389,6.93-1.446,14.418l-19.426,50.414
	c-2.901,7.718-6.225,12.644-9.742,14.648c-3.414,1.9-10.48,2.969-21.19,3.094l-24.069,0.069l32.844-85.74L497.522,27.878
	L497.522,27.878z M18.056,114.108L50.9,28.39l23.966,0.035c10.641-0.068,16.775,0.967,18.972,2.834
	c2.06,2.196,1.547,7.101-1.423,14.908l-3.391,8.899c-2.356,6.168-4.735,10.231-6.874,12.449c-2.22,1.969-5.542,3.621-9.605,4.747
	c3.323,0.876,5.189,2.354,5.895,4.356c0.752,2.061,0.262,5.293-1.377,9.582l-10.687,27.713l-21.099,0.092L56.51,84.654
	c0.648-1.776,0.865-2.936,0.352-3.618c-0.477-0.581-1.581-0.934-3.357-1.025l-1.218,0.091l-13.042,33.846L18.056,114.108
	L18.056,114.108z M509.653,79.067l21.224-0.056L524.3,95.877c-0.547,1.511-0.706,2.548-0.421,3.163
	c0.193,0.807,0.909,1.036,2.071,0.934c0.865,0.102,1.832-0.263,2.674-0.74c0.739-0.423,1.161-1.003,1.445-1.743l0.615-1.614
	l4.904-12.872c0.684-1.674,0.968-2.937,0.581-3.517c-0.159-0.933-1.06-1.707-2.413-2.414l-11.518-6.714
	c-2.549-1.581-4.039-3.619-4.586-5.962c-0.672-2.392-0.261-5.588,1.354-9.492l3.779-9.867c2.935-7.944,6.226-12.644,9.833-14.646
	c3.458-2.037,10.299-3.061,21.064-3.324c9.878,0.16,16.103,1.002,18.267,2.993c2.48,1.81,2.707,5.008,0.897,9.617l-1.969,5.257
	l-4.87,12.645l-20.768,0.034l4.642-12.188c0.807-1.707,0.9-2.879,0.671-3.585c-0.284-0.319-0.966-0.671-2.254-0.671
	c-0.932-0.035-1.842,0.387-2.48,0.966c-0.773,0.638-1.32,1.605-1.968,3.154l-3.233,8.33c-0.545,1.547-0.704,2.833-0.511,3.675
	c0.158,0.706,1.069,1.286,2.424,2.196l10.55,6.089c2.935,1.583,4.802,3.495,5.451,5.555c0.602,2.287,0.192,5.417-1.231,9.127
	l-7.521,19.551c-1.127,3.005-2.094,5.132-3.027,6.35c-1.002,1.525-2.162,2.879-3.447,3.881c-1.879,1.444-4.201,2.538-7.102,3.129
	c-2.834,0.479-8.002,0.832-15.512,0.899c-10.88-0.034-17.162-1.07-19.039-3.255c-2.004-2.002-1.48-6.942,1.388-14.488
	L509.653,79.067L509.653,79.067z M143.217,79.523l21.099-0.069l-6.578,16.876c-0.455,1.514-0.648,2.585-0.319,3.166
	c0.092,0.795,0.899,1,2.094,1c0.672,0.091,1.775-0.205,2.448-0.842c0.75-0.42,1.263-0.968,1.547-1.683l0.648-1.572l4.939-13.007
	c0.637-1.616,0.899-2.867,0.546-3.607c-0.194-0.774-1.036-1.547-2.39-2.324l-11.518-6.748c-2.549-1.547-4.153-3.448-4.711-5.804
	c-0.581-2.458-0.159-5.52,1.422-9.548l3.813-10.002c2.993-7.739,6.282-12.61,9.799-14.511c3.458-2.139,10.424-3.232,21.201-3.232
	c9.833-0.034,15.933,1.002,18.22,2.811c2.39,1.799,2.708,4.997,0.91,9.708l-1.912,5.099l-4.962,12.734l-20.871,0.103l4.802-12.223
	c0.58-1.684,0.877-2.878,0.523-3.357c-0.17-0.523-0.841-0.91-2.196-0.808c-1.001-0.034-2.094,0.319-2.583,0.968
	c-0.706,0.546-1.422,1.582-2.037,3.197l-3.062,8.057c-0.545,1.776-0.772,2.937-0.579,3.744c0.159,0.706,1.035,1.617,2.458,2.265
	l10.549,6.054c2.959,1.685,4.894,3.495,5.418,5.748c0.74,2.095,0.228,5.29-1.195,9.002l-7.545,19.676
	c-1.035,2.812-2.105,4.938-3.005,6.383c-0.898,1.39-2.161,2.709-3.424,3.814c-1.867,1.354-4.292,2.48-7.091,3.13
	c-2.742,0.419-8.034,0.737-15.489,0.737c-10.868-0.032-17.23-1.033-19.13-3.038c-1.775-2.149-1.479-6.963,1.514-14.704
	L143.217,79.523L143.217,79.523z M100.449,45.484c2.902-7.932,6.351-12.928,9.674-14.806c3.448-1.833,10.447-2.834,21.099-2.96
	c10.833-0.033,16.968,1.025,18.971,3.096c1.833,2.095,1.389,6.964-1.582,14.579l-19.619,51.324
	c-3.186,7.899-6.316,12.712-9.707,14.704c-3.551,2.108-10.675,3.074-21.224,3.108c-10.811,0.057-17.231-0.968-18.937-3.003
	c-1.935-2.061-1.354-7.137,1.65-14.875L100.449,45.484L100.449,45.484z M186.576,113.812l32.775-85.58h33.459l-5.167,13.873
	l-12.518-0.103l-6.839,17.742l12.461,0.034l-5.326,13.998H222.8l-10.061,26.265l12.679-0.066l-5.384,13.838H186.576L186.576,113.812
	z M285.87,113.812l32.877-85.649l20.964-0.193l-27.45,71.844l12.484,0.068l-5.359,13.839L285.87,113.812L285.87,113.812z
	 M489.362,41.558l-22.317,58.131c0.216,0.091,0.672,0.091,0.898,0.249c0.615-0.124,0.843,0.036,1.002-0.033
	c1.513,0,2.834-0.216,3.551-0.773c0.638-0.445,1.32-1.185,1.832-2.323l0.809-2.288l18.356-47.968
	c0.934-2.287,1.093-3.618,0.739-4.164c-0.284-0.512-1.422-0.831-2.993-0.9L489.362,41.558L489.362,41.558z M121.185,46.132
	l-19.13,49.938c-0.671,1.683-0.796,2.81-0.58,3.48c0.194,0.581,0.773,0.878,1.935,0.843c1.035,0.069,1.774-0.161,2.583-0.683
	c0.683-0.409,1.036-0.989,1.514-1.9l0.683-1.707l19.199-50.005c0.58-1.707,0.795-2.902,0.58-3.482
	c-0.262-0.455-1.035-0.808-2.492-0.841c-0.775-0.092-1.582,0.227-2.163,0.807c-0.705,0.353-1.252,1.07-1.547,1.912L121.185,46.132
	L121.185,46.132z M66.48,58.582l4.484-11.801c0.864-2.196,1.035-3.426,0.671-3.971c-0.251-0.456-1.287-0.774-3.13-0.615h-1.798
	l-8.331,21.713c0.137,0.16,0.581,0.102,0.968,0.16c0.33,0.135,0.773,0.103,0.944,0.069c1.547,0.066,2.732-0.229,3.54-0.74
	c0.683-0.42,1.297-1.263,1.809-2.618L66.48,58.582L66.48,58.582z"/>
<path fill-rule="evenodd" clip-rule="evenodd" fill="#1C3687" d="M667.241,76.183l-15.773,40.936l-20.2,0.159l32.935-85.684
	l20.04-0.067l-13.167,34.461l21.257-34.517l20.838-0.104l-25.673,38.716l-4.678,47.035l-21.202,0.057L667.241,76.183L667.241,76.183
	z M730.595,117.211l32.935-85.706l24.036-0.068c10.516,0.035,16.672,1.001,18.778,3.061c2.219,2.071,1.775,6.942-1.194,14.749
	l-3.427,8.832c-2.412,6.203-4.803,10.321-6.896,12.359c-2.229,2.252-5.485,3.799-9.582,4.835c3.187,1.071,5.1,2.586,5.873,4.45
	c0.67,2.131,0.318,5.238-1.389,9.459l-10.776,27.87l-21.101,0.068l11.267-29.292c0.706-1.81,0.934-3.005,0.58-3.747
	c-0.557-0.544-1.877-0.863-3.744-0.736l-1.126-0.127l-13.076,33.994H730.595L730.595,117.211z M574.035,117.313l45.59-85.719
	l25.413-0.033l-19.997,85.614h-19.871l4.905-16.673l-8.49-0.033l-8.057,16.741L574.035,117.313L574.035,117.313z M688.692,117.175
	l32.74-85.648l33.619-0.056l-5.361,13.895l-12.484-0.023l-6.874,17.776l12.587,0.023l-5.36,13.907l-12.52-0.033L714.98,103.28
	l12.518,0.024l-5.292,13.872H688.692L688.692,117.175z M787.304,117.119l32.841-85.717l21.066-0.067l-32.877,85.683L787.304,117.119
	L787.304,117.119z M623.335,16.631c0.83-2.037,1.901-3.46,3.13-4.326c1.412-0.875,3.186-1.263,5.837-1.286l15.706,0.125
	c2.583-0.193,4.2,0.227,4.813,1.252c0.637,0.75,0.672,2.14-0.227,4.199l-2.357,6.385c-0.774,1.935-1.9,3.391-3.164,4.234
	c-1.354,1.024-3.163,1.32-5.712,1.32L625.657,28.5c-2.515,0.09-4.291-0.295-4.905-1.264c-0.581-0.899-0.546-2.253,0.194-4.313
	L623.335,16.631L623.335,16.631z M608.074,86.368l6.384,0.035l9.583-33.003L608.074,86.368L608.074,86.368z M779.212,61.629
	l4.518-11.644c0.74-2.196,0.832-3.448,0.547-3.777c-0.331-0.615-1.39-0.809-3.097-0.809l-1.775-0.056l-8.42,21.872
	c0.124,0.092,0.545,0.058,0.932,0.127c0.319,0.125,0.706-0.069,0.842,0.034c1.741,0,2.937-0.194,3.642-0.774
	c0.648-0.523,1.457-1.332,1.969-2.709L779.212,61.629L779.212,61.629z M643.206,17.917l-11.324-0.058
	c-0.489-0.102-0.967,0.16-1.456,0.546c-0.514,0.353-0.831,0.74-1.094,1.514c-0.353,0.58-0.387,1.252-0.124,1.445
	c-0.036,0.398,0.387,0.614,1.125,0.648l11.291-0.056c0.58,0.091,1.125-0.171,1.648-0.559c0.547-0.478,0.797-0.807,1.059-1.604
	c0.297-0.717,0.353-1.298,0.103-1.491C644.331,17.95,643.876,17.791,643.206,17.917L643.206,17.917z"/>
<path display="none" fill-rule="evenodd" clip-rule="evenodd" fill="#919890" d="M754.539,257.163l-1.161,2.377h3.062h6.805h1.719
	l0.444-1.376l12.041-39.171l0.739-2.185h-2.708h-0.615h-1.49l-0.581,1.161L754.539,257.163L754.539,257.163z M751.535,267.325
	h-1.515l-0.546,1.186l-7.874,17h-14.864l42.609-82.063h23.033l-19.869,82.063h-15.422l4.905-16.001l0.511-2.186h-2.673H751.535
	L751.535,267.325z M804.966,275.451l-0.752,2.287h0.683l-0.102,0.228h2.811h1.229c2.32,0,4.096-0.613,5.121-1.159l0.137-0.103
	l0.125-0.092c0.877-0.807,1.865-2.127,2.549-3.778l8.158-21.189c0.389-0.9,0.548-1.708,0.616-2.356
	c0.033-0.968-0.478-1.674-0.877-2.094c-0.932-0.968-2.48-1.491-4.836-1.491h-0.864h-0.911h-1.583l-0.511,1.263L804.966,275.451
	L804.966,275.451z M805.478,285.511h-20.291l31.546-82.063h23.352c7.648,0,12.781,0.74,14.909,2.424
	c0.773,0.773,1.002,1.991,0.899,3.539c-0.092,1.878-0.547,4.198-1.674,6.976l-4.289,11.324c-1.354,3.323-2.903,5.872-4.838,7.669
	c-1.809,1.776-4.517,3.074-7.738,4.007l-5.166,1.479l4.995,1.845c2.162,0.807,3.744,1.708,4.268,3.13c0,0.284,0.023,0.705,0,1.193
	c0.092,1.708-0.556,3.962-1.718,6.806l-5.838,15.616c-2.675,6.929-5.713,11.412-9.23,13.346
	C821.057,284.577,814.73,285.511,805.478,285.511L805.478,285.511z M822.798,236.839h0.9h0.876c1.969,0,3.642-0.332,5.165-1.164
	l0.127-0.067l0.125-0.091c1.103-0.841,1.741-1.878,2.583-3.811l5.679-14.738c0.387-0.911,0.614-1.742,0.614-2.356
	c0.057-0.842-0.158-1.491-0.523-1.9c-0.796-0.979-2.22-1.684-4.836-1.684h-2.094h-1.584l-0.544,1.263l-8.423,22.283l-0.933,2.266
	H822.798L822.798,236.839z M609.212,284.577l30.932-80.448l23.136-0.102c10.675,0,16.285,1.161,17.936,2.708
	c0.228,0.228,0.353,0.456,0.42,0.649c0.354,1.058,0.286,4.028-2.195,10.447l-3.427,8.843c-2.344,6.065-4.574,9.776-6.35,11.55
	c-0.068,0.056-0.193,0.159-0.285,0.25c-1.944,1.81-4.881,3.266-8.716,4.2l-6.226,1.549l-0.035,1.581l6.193,2.026
	c3.265,1.07,4.516,2.354,4.778,3.197c0.263,0.649,0.319,2.457-1.32,6.773l-10.287,26.617l-17.332,0.067l9.741-25.298
	c0.523-1.387,1.524-3.959,0.683-6.293c-0.069-0.16-0.125-0.283-0.193-0.408l-0.194-0.386l-0.262-0.263
	c-1.001-1.003-2.743-1.264-4.542-1.128l-2.037-0.194l-13.098,34.062H609.212L609.212,284.577z M453.267,284.771l42.813-80.481
	h22.294l-18.777,80.358h-16.195l4.928-16.719h-11.836l-8.09,16.773L453.267,284.771L453.267,284.771z M567.275,284.611
	l30.772-80.389l29.749-0.092l-3.289,8.672l-12.519-0.068l-8.911,23.033l12.588,0.069l-3.323,8.647l-12.519-0.032l-12.064,31.455
	l12.519,0.057l-3.289,8.614L567.275,284.611L567.275,284.611z M542.113,243.518l-15.841,41.093l-16.353,0.16l30.898-80.423
	l16.229-0.058l-14.966,39.159L542.113,243.518L542.113,243.518z M545.107,242.517l23.591-38.295l16.023-0.068l-23.056,34.742
	l-4.553,45.752l-17.776,0.032L545.107,242.517L545.107,242.517z M500.404,188.13c0.479-1.264,1.059-2.141,1.742-2.743
	c0.193-0.193,0.387-0.364,0.58-0.523c1.127-0.671,2.674-1.093,5.224-1.058l15.707,0.091c2.104,0.034,3.106,0.262,3.549,0.49
	c-0.056,0.228-0.16,0.58-0.319,1.001l-2.39,6.385c-0.421,1.093-1.001,1.968-1.774,2.674c-0.228,0.193-0.421,0.353-0.638,0.512
	c-1.035,0.752-2.549,1.104-5.041,1.139l-15.704-0.069c-2.071,0.034-3.233-0.228-3.676-0.49c0.056-0.216,0.125-0.58,0.318-1.127
	L500.404,188.13L500.404,188.13z M480.432,259.097h10.742l12.712-43.814l-1.547-1.514L480.432,259.097L480.432,259.097z
	 M518.817,185.353l-11.255-0.068c-0.74,0-1.422,0.261-2.128,0.773c-0.126,0.102-0.296,0.228-0.421,0.354
	c-0.545,0.489-0.966,1.126-1.32,2.07c-0.42,0.831-0.933,2.413-0.331,4.097c0.035,0.058,0.069,0.125,0.103,0.227l0.068,0.126
	c0.637,1.809,2.163,1.776,2.515,1.741l11.186-0.068c0.876,0.102,1.742-0.125,2.55-0.865c0.716-0.683,1.16-1.297,1.65-2.515
	c0.09-0.331,0.864-2.197,0.227-4.006c-0.137-0.319-0.227-0.547-0.387-0.774C520.468,185.092,519.169,185.319,518.817,185.353
	L518.817,185.353z M656.28,232.968l4.485-11.584c0.706-1.775,1.41-4.324,0.706-6.327c-0.092-0.285-0.229-0.546-0.388-0.775
	c-0.318-0.546-0.683-0.796-0.968-0.933c-0.774-0.479-2.037-0.512-3.22-0.581l-2.685-0.091l-8.9,23.16
	c-0.193,0.421-0.455,1.547-0.067,2.708c0.419,1.128,1.102,1.285,1.102,1.285c0.161,0.069,0.32,0.069,0.353,0.069
	c0.125,0,0.285,0,0.354,0c0.159,0,0.227,0,0.261,0c0.352,0.07,0.637,0.07,0.831,0.07h0.295c1.707,0,3.256-0.194,4.381-1.036
	c0.137-0.127,0.297-0.286,0.49-0.423c0.648-0.636,1.547-1.637,2.163-3.322L656.28,232.968L656.28,232.968z M665.921,284.544
	l30.806-80.415l17.196-0.102l-30.808,80.458L665.921,284.544L665.921,284.544z"/>
</svg>
